…
# Clusters
clust <- readRDS("../rdata.files/gr_growth_clusters.rds")
  
# Reclassified ASVs
tax_new <- read_tsv("../reclassify_silva138/taxonomy.fixed.tsv") %>% 
  rename(ASV = OTU) %>% 
  mutate(across(c("Domain":"Genus"), ~ gsub("[a-z]__", "", .x)),
         Genus_reformat = gsub("\\t.+", "", Genus))
tax_new
```

    ## # A tibble: 48,437 × 8
    ##    ASV      Domain  Phylum   Class   Order   Family   Genus      Genus_reformat 
    ##    <chr>    <chr>   <chr>    <chr>   <chr>   <chr>    <chr>      <chr>          
    ##  1 d78d0f7… Bacter… Verruco… Chlamy… Chlamy… Simkani… "Ga007414… Ga0074140      
    ##  2 0d431f1… Bacter… Plancto… Planct… Gemmat… Gemmata… "uncultur… uncultured     
    ##  3 ad47913… Bacter… Methylo… Methyl… Rokuba… Rokubac… "Rokubact… Rokubacteriales
    ##  4 097bf57… Bacter… Proteob… Gammap… Pseudo… Pseudom… "Pseudomo… Pseudomonas    
    ##  5 1b8a559… Bacter… Plancto… Phycis… Tepidi… WD2101_… "WD2101_s… WD2101_soil_gr…
    ##  6 711c958… Bacter… Patesci… Parcub… Candid… Candida… "Candidat… Candidatus_Jor…
    ##  7 6cbebc3… Bacter… Plancto… Phycis… Tepidi… CPla-3_… "CPla-3_t… CPla-3_termite…
    ##  8 10c97dc… Bacter… Plancto… Phycis… mle1-8  mle1-8   "mle1-8"   mle1-8         
    ##  9 4115c93… Bacter… Bactero… Kapaba… Kapaba… Kapabac… "Kapabact… Kapabacteriales
    ## 10 52722a4… Bacter… Chlorof… Ktedon… Ktedon… Ktedono… "uncultur… uncultured     
    ## # … with 48,427 more rows
…
# Clusters

## Add updated classifications

``` r
# Add new classifications to clustered growth data
clust_new <- clust %>% 
  select(everything(), -c(Phylum:Genus)) %>% 
  left_join(tax_new) %>% 
  select(everything(), -Genus) %>% 
  rename(Genus = Genus_reformat)
clust_new
```

    ## # A tibble: 622 × 17
    ##    Soil  Amendment ASV           k start_day end_day start_abund end_abund  n16S
    ##    <fct> <fct>     <chr>     <dbl>     <dbl>   <dbl>       <dbl>     <dbl> <dbl>
    ##  1 S17   N         0053bbf… 0.0608     9        50        0.0173    0.263    1  
    ##  2 S17   N         0343b75… 0.0341     0        50        0.0451    0.204    2  
    ##  3 S17   N         03cb34f… 0.171      0        17        0.0178    0.733    3  
    ##  4 S17   N         08e28ec… 0.431      3         7        0.0414    1.4      1.5
    ##  5 S17   N         09b9dc3… 0.313      0.916    26.5      0.0215    0.384    1  
    ##  6 S17   N         0adc5d3… 0.178      0        17        0.0178    0.867    1  
    ##  7 S17   N         0dfc1be… 0.0324     1        28        0.588     1.54     1  
    ##  8 S17   N         10c9782… 0.0282     0        28        0.0178    0.0404   1  
    ##  9 S17   N         1dccd87… 0.144      2        17        0.156     2.93     1  
    ## 10 S17   N         20f7262… 0.0551     0        50        0.0153    0.368    1  
    ## # … with 612 more rows, and 8 more variables: genome_size <dbl>, cluster <chr>,
    ## #   Domain <chr>, Phylum <chr>, Class <chr>, Order <chr>, Family <chr>,
    ## #   Genus <chr>
…
    ## [1] 21.21212

## Growth change of overlapping taxa

``` r
clust_widek <- clust_new %>% 
  mutate(label = paste0(Soil, Amendment, cluster)) %>% 
    select(label, ASV, k) %>% 
  pivot_wider(names_from = label, values_from=k)
clust_widek
```

    ## # A tibble: 446 × 8
    ##    ASV       S17Nslow S17Nfast S17Yfast S17Yslow C3Nslow C3Nfast C3Yintermediate
    ##    <chr>        <dbl>    <dbl>    <dbl>    <dbl>   <dbl>   <dbl>           <dbl>
    ##  1 0053bbfc…   0.0608   NA           NA  NA       0.0554  NA              NA    
    ##  2 0343b75c…   0.0341   NA           NA  NA      NA       NA              NA    
    ##  3 03cb34ff…   0.171    NA           NA  NA       0.0831  NA              NA    
    ##  4 08e28eca…  NA         0.431       NA  NA      NA        0.173          NA    
    ##  5 09b9dc34…  NA         0.313       NA   0.0922 NA       NA              NA    
    ##  6 0adc5d3c…   0.178    NA           NA  NA      NA       NA              NA    
    ##  7 0dfc1beb…   0.0324   NA           NA  NA      NA       NA              NA    
    ##  8 10c97828…   0.0282   NA           NA  NA      NA       NA              NA    
    ##  9 1dccd87c…   0.144    NA           NA  NA      NA        0.266           0.317
    ## 10 20f72620…   0.0551   NA           NA  NA      NA       NA              NA    
    ## # … with 436 more rows
…
# Cluster phylogenies

``` r
clust_phy <- clust_new %>%
  select(Soil, Amendment, cluster, ASV, Phylum) %>% 
  group_by(Soil, Amendment, cluster, Phylum) %>% 
  summarize(count = n()) %>% 
  mutate(label = paste0(Soil, Amendment))
clust_phy  
```

    ## # A tibble: 78 × 6
    ## # Groups:   Soil, Amendment, cluster [7]
    ##    Soil  Amendment cluster      Phylum            count label
    ##    <fct> <fct>     <chr>        <chr>             <int> <chr>
    ##  1 C3    Y         intermediate Acidobacteriota      21 C3Y  
    ##  2 C3    Y         intermediate Actinobacteriota     64 C3Y  
    ##  3 C3    Y         intermediate Bacteroidota          4 C3Y  
    ##  4 C3    Y         intermediate Chloroflexi          10 C3Y  
    ##  5 C3    Y         intermediate Desulfobacterota      1 C3Y  
    ##  6 C3    Y         intermediate Firmicutes            3 C3Y  
    ##  7 C3    Y         intermediate Gemmatimonadota       2 C3Y  
    ##  8 C3    Y         intermediate Methylomirabilota     1 C3Y  
    ##  9 C3    Y         intermediate Myxococcota           3 C3Y  
    ## 10 C3    Y         intermediate Nitrospirota          1 C3Y  
    ## # … with 68 more rows
…
